module github.com/SovereignCloudStack/status-page-api

go 1.20

require (
	github.com/SovereignCloudStack/status-page-openapi/pkg/api v0.0.0-20230627073138-2ced16247192
	github.com/google/uuid v1.3.0
	github.com/labstack/echo/v4 v4.10.2
	github.com/rs/zerolog v1.29.1
	github.com/spf13/pflag v1.0.5
	gopkg.in/yaml.v3 v3.0.1
	gorm.io/driver/postgres v1.5.2
	gorm.io/gorm v1.25.1
)

require (
	github.com/apapsch/go-jsonmerge/v2 v2.0.0 // indirect
	github.com/bytedance/sonic v1.9.2 // indirect
	github.com/chenzhuoyu/base64x v0.0.0-20221115062448-fe3a3abad311 // indirect
	github.com/deepmap/oapi-codegen v1.13.0 // indirect
	github.com/gabriel-vasile/mimetype v1.4.2 // indirect
	github.com/getkin/kin-openapi v0.118.0 // indirect
	github.com/gin-contrib/sse v0.1.0 // indirect
	github.com/gin-gonic/gin v1.9.1 // indirect
	github.com/go-openapi/jsonpointer v0.19.6 // indirect
	github.com/go-openapi/swag v0.22.4 // indirect
	github.com/go-playground/locales v0.14.1 // indirect
	github.com/go-playground/universal-translator v0.18.1 // indirect
	github.com/go-playground/validator/v10 v10.14.1 // indirect
	github.com/goccy/go-json v0.10.2 // indirect
	github.com/golang-jwt/jwt v3.2.2+incompatible // indirect
	github.com/invopop/yaml v0.2.0 // indirect
	github.com/jackc/pgpassfile v1.0.0 // indirect
	github.com/jackc/pgservicefile v0.0.0-20221227161230-091c0ba34f0a // indirect
	github.com/jackc/pgx/v5 v5.4.1 // indirect
	github.com/jinzhu/inflection v1.0.0 // indirect
	github.com/jinzhu/now v1.1.5 // indirect
	github.com/josharian/intern v1.0.0 // indirect
	github.com/json-iterator/go v1.1.12 // indirect
	github.com/klauspost/cpuid/v2 v2.2.5 // indirect
	github.com/labstack/gommon v0.4.0 // indirect
	github.com/leodido/go-urn v1.2.4 // indirect
	github.com/mailru/easyjson v0.7.7 // indirect
	github.com/mattn/go-colorable v0.1.13 // indirect
	github.com/mattn/go-isatty v0.0.19 // indirect
	github.com/modern-go/concurrent v0.0.0-20180306012644-bacd9c7ef1dd // indirect
	github.com/modern-go/reflect2 v1.0.2 // indirect
	github.com/mohae/deepcopy v0.0.0-20170929034955-c48cc78d4826 // indirect
	github.com/pelletier/go-toml/v2 v2.0.8 // indirect
	github.com/perimeterx/marshmallow v1.1.4 // indirect
	github.com/rogpeppe/go-internal v1.10.0 // indirect
	github.com/twitchyliquid64/golang-asm v0.15.1 // indirect
	github.com/ugorji/go/codec v1.2.11 // indirect
	github.com/valyala/bytebufferpool v1.0.0 // indirect
	github.com/valyala/fasttemplate v1.2.2 // indirect
	golang.org/x/arch v0.3.0 // indirect
	golang.org/x/crypto v0.10.0 // indirect
	golang.org/x/net v0.11.0 // indirect
	golang.org/x/sys v0.9.0 // indirect
	golang.org/x/text v0.10.0 // indirect
	golang.org/x/time v0.3.0 // indirect
	google.golang.org/protobuf v1.31.0 // indirect
)
